{
  "$schema": "http://json-schema.org/draft-07/schema#",
  "$id": "https://gitlab.com/gitlab-org/security-products/security-report-schemas/-/raw/master/dist/secret-detection-report-format.json",
  "title": "Report format for GitLab Secret Detection",
  "description": "This schema provides the the report format for the Secret Detection analyzer (https://docs.gitlab.com/ee/user/application_security/secret_detection)",
  "allOf": [
    { "$ref": "security-report-format.json" },
    {
      "properties": {
        "scan": {
          "properties": {
            "type": {
              "enum": ["secret_detection"]
            }
          }
        }
      }
    },
    {
      "properties": {
        "vulnerabilities": {
          "items": {
            "properties": {
              "location": {
                  "$ref": "#/definitions/location",
                  "required": [ "commit" ],
                  "type": "object"
              },
              "raw_source_code_extract": {
                "type": "string",
                "description": "Provides an unsanitized excerpt of the affected source code."
              }
            },
            "required": [ "location" ],
            "description": "Relevant part of code for the vulnerability"
          }
        }
      }
    }
  ],
  "definitions": {
    "commit": {
      "type": "object",
      "description": "Represents the commit in which the vulnerability was detected",
      "required": [ "sha" ],
      "properties": {
        "author": {
          "type": "string"
        },
        "date": {
          "type": "string"
        },
        "message": {
          "type": "string"
        },
        "sha": {
          "type": "string",
          "minLength": 1
        }
      }
    },
    "location": {
      "properties": {
        "file": {
          "type": "string",
          "description": "Path to the file where the vulnerability is located"
        },
        "commit": {
          "$ref": "#/definitions/commit"
        },
        "start_line": {
          "type": "number",
          "description": "The first line of the code affected by the vulnerability"
        },
        "end_line": {
          "type": "number",
          "description": "The last line of the code affected by the vulnerability"
        },
        "class": {
          "type": "string",
          "description": "Provides the name of the class where the vulnerability is located"
        },
        "method": {
          "type": "string",
          "description": "Provides the name of the method where the vulnerability is located"
        }
      }
    }
  }
}
